…
The `mdb_tables()` function returns a simple character vector of table
names.

``` r
library(mdbr)
mdb_tables(ex <- mdb_example())
#> [1] "Airlines" "Airports" "Flights"  "Planes"
```

Those table names can be used to directly read a table as a data frame.

``` r
read_mdb(ex, "Planes")
#> # A tibble: 1,468 x 9
#>    tailnum  year type          manufacturer   model  engines seats speed engine 
#>    <chr>   <dbl> <chr>         <chr>          <chr>    <dbl> <dbl> <dbl> <chr>  
#>  1 N10156   2004 Fixed wing m… EMBRAER        EMB-1…       2    55    NA Turbo-…
#>  2 N103US   1999 Fixed wing m… AIRBUS INDUST… A320-…       2   182    NA Turbo-…
#>  3 N104UW   1999 Fixed wing m… AIRBUS INDUST… A320-…       2   182    NA Turbo-…
#>  4 N10575   2002 Fixed wing m… EMBRAER        EMB-1…       2    55    NA Turbo-…
#>  5 N105UW   1999 Fixed wing m… AIRBUS INDUST… A320-…       2   182    NA Turbo-…
#>  6 N107US   1999 Fixed wing m… AIRBUS INDUST… A320-…       2   182    NA Turbo-…
#>  7 N11109   2002 Fixed wing m… EMBRAER        EMB-1…       2    55    NA Turbo-…
#>  8 N11113   2002 Fixed wing m… EMBRAER        EMB-1…       2    55    NA Turbo-…
#>  9 N11119   2002 Fixed wing m… EMBRAER        EMB-1…       2    55    NA Turbo-…
#> 10 N11121   2003 Fixed wing m… EMBRAER        EMB-1…       2    55    NA Turbo-…
#> # … with 1,458 more rows
```
…
